{"demo_qualif":
  {"FeatureAccessCode": {"+ACR": ["*77", "Anonymous Call Rejection activation"],
                       "+BAE164D": ["*14",
                                    "Broadworks Anywhere E.164 Dialing"],
                       "+CB": ["*15", "CAll Bridge"],
                       "+CFA": ["*21", "CFA Activation Call Forward Always"],
                       "+CFA_VM": ["*21*",
                                   "CFA-VM Activation , CAll Forward Always to Voice Mail Activation"],
                       "+CFB": ["*22",
                                "CFB Activation , CallForward Busy Activation"],
                       "+CFB_VM": ["*22*",
                                   "CFB-VM  Activation , CallForward Busy to Voice Mail Activation"],
                       "+CFNA": ["*23",
                                 "CFNA Activation , Call Forward No Answer Activation"],
                       "+CFNA_VM": ["*23*",
                                    "CFNA-VM Activation , Call Forward No Answer to Voice Mail Activation"],
                       "+CFNR": ["*24",
                                 "CFNR Activation,    Call Forward Not Reachable Activation"],
                       "+CFS": ["*270*",
                                "Call Forwarding Selective Activation"],
                       "+CLIR": ["*3651",
                                 "Call Line ID Delivery Blocking , per call, or Call Line Identity Restriction"],
                       "+CP": ["*62", "Call Park"],
                       "+CPR": ["*88", "Call Park Retrieve"],
                       "+CPup": ["*41*", "Call Pickup"],
                       "+CR": ["*31", "Call Return activation"],
                       "+CWP": ["*43*", "Call Waiting Persistent Activation"],
                       "+DCPup": ["*41", "Directed Call Pickup"],
                       "+DND": ["*78", "Do Not Disturb Activation"],
                       "+DVMT": ["*55", "Direct Voice Mail Transfer"],
                       "+ExACP": ["#63", "Executive-Assistant Call Push"],
                       "+ExAIC": ["#64", "Executive-Assistant Initiate Call"],
                       "+ExAOin": ["#65", "Executive-Assistant Opt-in"],
                       "+ExAOout": ["#66", "Executive-Assistant Opt-out"],
                       "+LC": ["*12", "Location Control activation"],
                       "+LNR": ["*33", "Last Number Redial"],
                       "+SD100": ["*75", "Speed Dial 100"],
                       "+SD8": ["*74", "Speed Dial 8"],
                       "-ACR": ["*87",
                                "Anonymous Call Rejection deactivation"],
                       "-CFA": ["*211*", "Call Forward Always Deactivation"],
                       "-CFA_VM": ["*213*",
                                   "CFA-VM DeActivation , CAll Forward Always to Voice Mail DeActivation"],
                       "-CFB": ["*221*",
                                "CFB DeActivation , CallForward Busy DeActivation"],
                       "-CFB_VM": ["*223*",
                                   "CFB-VM  DeActivation , CallForward Busy to Voice Mail DeActivation"],
                       "-CFNA": ["*231*",
                                 "CFNA DeActivation , Call Forward No Answer DeActivation"],
                       "-CFNA_VM": ["*233*",
                                    "CFNA-VM DeActivation , Call Forward No Answer to Voice Mail DeActivation"],
                       "-CFNR": ["*241*",
                                 "CFNR DeActivation,    Call Forward Not Reachable DeActivation"],
                       "-CFS": ["*271*",
                                "Call Forwarding Selective Activation"],
                       "-CLIR": ["#3651",
                                 "Call Line ID Delivery overiding , per call when permanent Line Identity Restriction"],
                       "-CR": ["*311*",
                               "Call Return deactivation (Number Deletion)"],
                       "-CWP": ["*431*",
                                "Call Waiting Persistent Deactivation"],
                       "-DND": ["*79", "Do Not Disturb DeActivation"],
                       "-LC": ["*13", "Location Control deactivation"],
                       "?ACR": ["*52*",
                                "Anonymous Call Rejection Interrogation"],
                       "?CFA": ["*212*", "Call Forward Always Interrogation"],
                       "?CFB": ["*222*",
                                "CFB Interrogation , CallForward Busy Interrogation"],
                       "?CFNA": ["*232*",
                                 "CFNA Interrogation , Call Forward No Answer Interrogation"],
                       "?CFNR": ["*242*",
                                 "CFNR Interrogation,    Call Forward Not Reachable Interrogation"],
                       "?CWP": ["*53*", "Call Waiting Interrogation"]},
 "destinations": {"Alice_SD_2": 2,
                  "Alice_SD_3": 3,
                  "Alice_SD_4": 4,
                  "Alice_noSDA_SD_2": 2,
                  "Alice_noSDA_SD_3": 3,
                  "Alice_noSDA_SD_4": 4,
                  "wrong_Extension": "00000",
                  "wrong_FeatureAccessCode_1": "*100",
                  "wrong_FeatureAccessCode_2": "*72",
                  "wrong_PrivateNumber": "112527",
                  "wrong_Sid_E1S1": "112527",
                  "wrong_Sid_E1S2": "122518"},
 "enterprises": {"enterprise_1": {"CID": 0,
                                  "name": "LPRISMEVQ1",
                                  "sites": {"site_1": {"CallingLineIDGroupName": "CLID_2361EVQ1",
                                                       "CallingLineIDGroupNumber": "0146502509",
                                                       "LocationDialingCode": "11",
                                                       "name": "2361EVQ1",
                                                       "users": {"Alice": {
                                                                            "username": "1000"
                                                                            },
                                                                 "Alice_noSDA": {"number": "6310",
                                                                                 "username": "P2361EVQ1_6310"},
                                                                 "Bob": {"username": "1001"},
                                                                 "Bob_Short_Target": {"username": "+33146502515"},
                                                                 "Bob_noSDA": {"number": "6311",
                                                                               "username": "P2361EVQ1_6311"},
                                                                 "Bob_noSDA_Short": {"number": "6312",
                                                                                     "target": "Bob_Short_Target",
                                                                                     "username": "P2361EVQ1_6312"},
                                                                 "Charlie": {"username": "+33146502512"},
                                                                 "Dave": {"username": "+33146502513"},
                                                                 "Erin": {"username": "+33146502514"}}},
                                            "site_2": {"CallingLineIDGroupName": "CLID_2361EVQ2",
                                                       "CallingLineIDGroupNumber": "0146502519",
                                                       "LocationDialingCode": "12",
                                                       "name": "2361EVQ2",
                                                       "users": {"Alice_InterSite": {"username": "+33146502520"},
                                                                 "Alice_InterSite_noSDA": {"number": "6321",
                                                                                           "username": "P2361EVQ2_6321"},
                                                                 "Bob_InterSite": {"username": "+33146502521"},
                                                                 "Bob_InterSite_noSDA": {"number": "6320",
                                                                                         "username": "P2361EVQ2_6320"},
                                                                 "Charlie_InterSite": {"username": "+33146502522"},
                                                                 "Dave_InterSite": {"username": "+33146502523"}}},
                                            "virtual": {"name": "virtual",
                                                        "users": {"Bob_Abbreviated": {"target": "Bob_Abbreviated_Target",
                                                                                      "username": "3212",
                                                                                      "virtual": "true"}}}}},
                 "enterprise_2": {"CID": 0,
                                  "name": "LPRISMEVQ2",
                                  "sites": {"site_1": {"CallingLineIDGroupName": "CLID_2361EVQ3",
                                                       "CallingLineIDGroupNumber": "0146502530",
                                                       "LocationDialingCode": "21",
                                                       "name": "2361EVQ3",
                                                       "users": {"Alice_InterEnterprise": {"username": "+33146502531"},
                                                                 "Alice_InterEnterprise_noSDA": {"username": "P2361EVQ3_6330"},
                                                                 "Bob_Abbreviated_Target": {"username": "+33146502533"},
                                                                 "Bob_InterEnterprise": {"username": "+33146502532"},
                                                                 "Bob_InterEnterprise_noSDA": {"username": "P2361EVQ3_6331"}}}}}},
 "main": {"ApplicationServerUrl": "http://bluebox/bluebox",
          "domain": "bluebox",
          "engine": "syprunner",
          "local_port_policy": 0,
          "password": "1234",
          "platform_dir": "/mnt/hgfs/Auto",
          "platform_name": "demo",
          "platform_version": "demo_qualif",
          "profile": "default",
          "proxy": "192.168.1.50:5060",
          "escape_prefix": "",
          "escape_prefix_explicit": "0"

    }}
}